[
  {
    "id": 1,
    "title": "Kickstart work on Meetly",
    "date": "2024-06-12",
    "startTime": "14:00",
    "endTime": "16:00",
    "created_at": "2024-06-08T10:00:00Z"
  },
  {
    "id": 2,
    "title": "Client Presentation",
    "date": "2024-06-15",
    "startTime": "10:00",
    "endTime": "11:30",
    "created_at": "2024-06-10T15:30:00Z"
  },
  {
    "id": 3,
    "title": "Project Kickoff",
    "date": "2024-06-20",
    "startTime": "09:00",
    "endTime": "12:00",
    "created_at": "2024-06-15T09:00:00Z"
  }
]
